<?xml version="1.0" standalone="no"?>
<!DOCTYPE svg PUBLIC "-//W3C//DTD SVG 20010904//EN"
 "http://www.w3.org/TR/2001/REC-SVG-20010904/DTD/svg10.dtd">
<svg version="1.0" xmlns="http://www.w3.org/2000/svg"
 width="500.000000pt" height="500.000000pt" viewBox="0 0 500.000000 500.000000"
 preserveAspectRatio="xMidYMid meet">
<metadata>
Created by potrace 1.11, written by Peter Selinger 2001-2013
</metadata>
<g transform="translate(0.000000,500.000000) scale(0.100000,-0.100000)"
fill="#000000" stroke="none">
<path d="M2245 4080 c-371 -66 -658 -216 -906 -475 -223 -232 -373 -540 -424
-875 -12 -72 -14 -349 -4 -415 5 -33 11 -73 14 -90 26 -176 119 -416 226 -582
70 -107 86 -123 125 -123 38 0 75 39 69 71 -2 12 -32 64 -66 116 -125 194
-194 384 -228 633 -10 68 -7 297 4 365 68 436 296 791 655 1023 227 147 486
224 760 226 158 1 251 -8 380 -38 133 -31 315 -111 448 -199 102 -67 128 -73
164 -40 26 23 23 75 -4 100 -118 106 -388 232 -603 281 -136 31 -157 33 -340
37 -130 2 -194 -1 -270 -15z"/>
<path d="M2345 3605 c-127 -17 -233 -50 -359 -114 -87 -44 -111 -61 -121 -85
-32 -75 47 -125 120 -76 72 49 209 103 315 125 367 75 756 -75 975 -375 228
-313 251 -741 57 -1063 -48 -81 -44 -126 13 -147 54 -20 100 32 167 190 134
314 124 650 -29 955 -51 100 -116 188 -208 280 -241 241 -583 355 -930 310z"/>
<path d="M3665 3470 c-30 -33 -21 -69 39 -159 107 -158 183 -345 222 -548 11
-59 15 -98 18 -223 8 -243 -39 -459 -147 -680 -182 -372 -501 -636 -910 -754
-48 -14 -109 -28 -135 -32 -26 -3 -56 -8 -67 -11 -45 -11 -315 -10 -390 2
-234 37 -431 112 -605 230 -51 34 -96 58 -112 58 -39 1 -68 -29 -68 -69 0 -39
38 -73 170 -152 163 -97 358 -168 555 -201 140 -24 404 -22 545 4 562 102
1032 502 1218 1035 67 194 93 360 87 570 -2 85 -6 171 -10 190 -41 234 -92
381 -206 590 -21 37 -79 122 -102 148 -26 28 -77 30 -102 2z"/>
<path d="M1588 3135 c-35 -19 -129 -210 -163 -330 -154 -555 141 -1137 679
-1340 238 -90 523 -92 761 -8 122 43 246 114 260 148 14 31 5 73 -18 87 -19
12 -71 9 -92 -5 -100 -69 -261 -126 -396 -143 -293 -36 -587 59 -791 259 -85
83 -107 110 -160 198 -142 235 -179 510 -103 773 24 83 76 200 110 248 46 67
-18 150 -87 113z"/>
<path d="M4235 3083 c67 -157 109 -345 117 -518 1 -27 6 -53 12 -57 8 -5 8 -8
0 -8 -7 0 -12 -23 -13 -57 -2 -125 -46 -346 -87 -441 -9 -20 -20 -49 -24 -64
l-8 -26 51 30 c146 84 340 239 458 364 61 65 169 192 169 199 0 13 -117 145
-214 240 -148 146 -257 231 -420 327 -39 23 -47 25 -41 11z"/>
<path d="M670 3048 c-183 -117 -360 -270 -498 -431 -43 -51 -82 -97 -85 -104
-17 -29 264 -320 424 -439 86 -65 241 -165 246 -160 2 2 -8 29 -21 62 -127
313 -130 723 -8 1037 18 46 25 77 18 76 -6 0 -40 -19 -76 -41z"/>
<path d="M2420 2934 c-83 -16 -126 -34 -185 -79 -67 -52 -90 -80 -133 -164
-36 -73 -37 -78 -37 -186 0 -108 1 -113 37 -186 76 -153 221 -248 383 -250
175 -2 323 90 403 250 33 68 37 82 39 170 1 69 -3 110 -15 146 -72 211 -282
338 -492 299z m203 -163 c65 -32 130 -106 152 -176 59 -190 -84 -385 -284
-385 -155 1 -291 138 -291 295 0 125 94 251 211 283 58 16 159 8 212 -17z"/>
</g>
</svg>
